---
http_interactions:
- request:
    method: get
    uri: https://pokeapi.co/api/v2/pokemon/?limit=20&offset=0
    body:
      encoding: US-ASCII
      string: ''
    headers:
      Accept-Encoding:
      - gzip;q=1.0,deflate;q=0.6,identity;q=0.3
      Accept:
      - "*/*"
      User-Agent:
      - Ruby
      Host:
      - pokeapi.co
  response:
    status:
      code: 200
      message: OK
    headers:
      Date:
      - Sat, 27 Dec 2025 14:02:44 GMT
      Content-Type:
      - application/json; charset=utf-8
      Transfer-Encoding:
      - chunked
      Connection:
      - keep-alive
      Access-Control-Allow-Origin:
      - "*"
      Cache-Control:
      - public, max-age=86400, s-maxage=86400
      Report-To:
      - '{"group":"cf-nel","max_age":604800,"endpoints":[{"url":"https://a.nel.cloudflare.com/report/v4?s=Ueuph0R9zqwEPX4mE%2FJR2%2BzrWcCRzVPARlmRxkvd0s%2FzvYgyyubmLECA2CEjSU0OSGn%2BPyTWHx3TnWFBuVcM8q21kg%2FsOQUbReQ%3D"}]}'
      Etag:
      - W/"589-pNqtwFp17dblw5SXEvc/DX5u5Y8"
      Server:
      - cloudflare
      Strict-Transport-Security:
      - max-age=31556926
      Traceparent:
      - 00-1001769e33293748d72dae8b8a146b6d-aeebc8aac08366fc-00
      X-Cloud-Trace-Context:
      - 1001769e33293748d72dae8b8a146b6d/12604388617826297596
      X-Country-Code:
      - US
      X-Orig-Accept-Language:
      - en-US,en;q=0.9
      X-Powered-By:
      - Express
      X-Served-By:
      - cache-lga21991-LGA
      X-Cache:
      - HIT
      X-Cache-Hits:
      - '0'
      X-Timer:
      - S1766156835.413744,VS0,VE1
      Vary:
      - Accept-Encoding,cookie,need-authorization, x-fh-requested-host, accept-encoding
      Alt-Svc:
      - h3=":443"; ma=86400
      Nel:
      - '{"report_to":"cf-nel","success_fraction":0.0,"max_age":604800}'
      Age:
      - '65504'
      Cf-Cache-Status:
      - HIT
      Cf-Ray:
      - 9b495b7b8fc8e8e4-MIA
    body:
      encoding: ASCII-8BIT
      string: '{"count":1350,"next":"https://pokeapi.co/api/v2/pokemon/?offset=20&limit=20","previous":null,"results":[{"name":"bulbasaur","url":"https://pokeapi.co/api/v2/pokemon/1/"},{"name":"ivysaur","url":"https://pokeapi.co/api/v2/pokemon/2/"},{"name":"venusaur","url":"https://pokeapi.co/api/v2/pokemon/3/"},{"name":"charmander","url":"https://pokeapi.co/api/v2/pokemon/4/"},{"name":"charmeleon","url":"https://pokeapi.co/api/v2/pokemon/5/"},{"name":"charizard","url":"https://pokeapi.co/api/v2/pokemon/6/"},{"name":"squirtle","url":"https://pokeapi.co/api/v2/pokemon/7/"},{"name":"wartortle","url":"https://pokeapi.co/api/v2/pokemon/8/"},{"name":"blastoise","url":"https://pokeapi.co/api/v2/pokemon/9/"},{"name":"caterpie","url":"https://pokeapi.co/api/v2/pokemon/10/"},{"name":"metapod","url":"https://pokeapi.co/api/v2/pokemon/11/"},{"name":"butterfree","url":"https://pokeapi.co/api/v2/pokemon/12/"},{"name":"weedle","url":"https://pokeapi.co/api/v2/pokemon/13/"},{"name":"kakuna","url":"https://pokeapi.co/api/v2/pokemon/14/"},{"name":"beedrill","url":"https://pokeapi.co/api/v2/pokemon/15/"},{"name":"pidgey","url":"https://pokeapi.co/api/v2/pokemon/16/"},{"name":"pidgeotto","url":"https://pokeapi.co/api/v2/pokemon/17/"},{"name":"pidgeot","url":"https://pokeapi.co/api/v2/pokemon/18/"},{"name":"rattata","url":"https://pokeapi.co/api/v2/pokemon/19/"},{"name":"raticate","url":"https://pokeapi.co/api/v2/pokemon/20/"}]}'
  recorded_at: Sat, 27 Dec 2025 14:02:44 GMT
recorded_with: VCR 6.4.0
